%YAML 1.1
%TAG !u! tag:unity3d.com,2011:
--- !u!1 &2103360389736583981
GameObject:
  m_ObjectHideFlags: 0
  m_CorrespondingSourceObject: {fileID: 0}
  m_PrefabInstance: {fileID: 0}
  m_PrefabAsset: {fileID: 0}
  serializedVersion: 6
  m_Component:
  - component: {fileID: 2103360389736583982}
  - component: {fileID: 436481192957110567}
  m_Layer: 0
  m_Name: ItemPosition
  m_TagString: ItemPosition
  m_Icon: {fileID: 0}
  m_NavMeshLayer: 0
  m_StaticEditorFlags: 0
  m_IsActive: 1
--- !u!4 &2103360389736583982
Transform:
  m_ObjectHideFlags: 0
  m_CorrespondingSourceObject: {fileID: 0}
  m_PrefabInstance: {fileID: 0}
  m_PrefabAsset: {fileID: 0}
  m_GameObject: {fileID: 2103360389736583981}
  m_LocalRotation: {x: 0, y: 0, z: 0, w: 1}
  m_LocalPosition: {x: 0, y: 0, z: 0}
  m_LocalScale: {x: 1, y: 1, z: 1}
  m_Children:
  - {fileID: 2103360389723757708}
  m_Father: {fileID: 0}
  m_RootOrder: 0
  m_LocalEulerAnglesHint: {x: 0, y: 0, z: 0}
--- !u!135 &436481192957110567
SphereCollider:
  m_ObjectHideFlags: 0
  m_CorrespondingSourceObject: {fileID: 0}
  m_PrefabInstance: {fileID: 0}
  m_PrefabAsset: {fileID: 0}
  m_GameObject: {fileID: 2103360389736583981}
  m_Material: {fileID: 0}
  m_IsTrigger: 1
  m_Enabled: 1
  serializedVersion: 2
  m_Radius: 0.5
  m_Center: {x: 0, y: 0, z: 0}
--- !u!1001 &4791470179643243824
PrefabInstance:
  m_ObjectHideFlags: 0
  serializedVersion: 2
  m_Modification:
    m_TransformParent: {fileID: 2103360389736583982}
    m_Modifications:
    - target: {fileID: 6867456841192808887, guid: 09af159b9e38e47f180c9ca26b372bce, type: 3}
      propertyPath: m_Name
      value: ItemPrefab
      objectReference: {fileID: 0}
    - target: {fileID: 6867456841192808892, guid: 09af159b9e38e47f180c9ca26b372bce, type: 3}
      propertyPath: m_RootOrder
      value: 0
      objectReference: {fileID: 0}
    - target: {fileID: 6867456841192808892, guid: 09af159b9e38e47f180c9ca26b372bce, type: 3}
      propertyPath: m_LocalPosition.x
      value: 0
      objectReference: {fileID: 0}
    - target: {fileID: 6867456841192808892, guid: 09af159b9e38e47f180c9ca26b372bce, type: 3}
      propertyPath: m_LocalPosition.y
      value: 0
      objectReference: {fileID: 0}
    - target: {fileID: 6867456841192808892, guid: 09af159b9e38e47f180c9ca26b372bce, type: 3}
      propertyPath: m_LocalPosition.z
      value: 0
      objectReference: {fileID: 0}
    - target: {fileID: 6867456841192808892, guid: 09af159b9e38e47f180c9ca26b372bce, type: 3}
      propertyPath: m_LocalRotation.w
      value: 1
      objectReference: {fileID: 0}
    - target: {fileID: 6867456841192808892, guid: 09af159b9e38e47f180c9ca26b372bce, type: 3}
      propertyPath: m_LocalRotation.x
      value: -0
      objectReference: {fileID: 0}
    - target: {fileID: 6867456841192808892, guid: 09af159b9e38e47f180c9ca26b372bce, type: 3}
      propertyPath: m_LocalRotation.y
      value: -0
      objectReference: {fileID: 0}
    - target: {fileID: 6867456841192808892, guid: 09af159b9e38e47f180c9ca26b372bce, type: 3}
      propertyPath: m_LocalRotation.z
      value: -0
      objectReference: {fileID: 0}
    - target: {fileID: 6867456841192808892, guid: 09af159b9e38e47f180c9ca26b372bce, type: 3}
      propertyPath: m_LocalEulerAnglesHint.x
      value: 0
      objectReference: {fileID: 0}
    - target: {fileID: 6867456841192808892, guid: 09af159b9e38e47f180c9ca26b372bce, type: 3}
      propertyPath: m_LocalEulerAnglesHint.y
      value: 0
      objectReference: {fileID: 0}
    - target: {fileID: 6867456841192808892, guid: 09af159b9e38e47f180c9ca26b372bce, type: 3}
      propertyPath: m_LocalEulerAnglesHint.z
      value: 0
      objectReference: {fileID: 0}
    m_RemovedComponents: []
  m_SourcePrefab: {fileID: 100100000, guid: 09af159b9e38e47f180c9ca26b372bce, type: 3}
--- !u!4 &2103360389723757708 stripped
Transform:
  m_CorrespondingSourceObject: {fileID: 6867456841192808892, guid: 09af159b9e38e47f180c9ca26b372bce, type: 3}
  m_PrefabInstance: {fileID: 4791470179643243824}
  m_PrefabAsset: {fileID: 0}
