{
    "name": "PlayerCamera",
    "maps": [
        {
            "name": "Player",
            "id": "60b58857-3f0e-4c60-9546-842565a29be0",
            "actions": [
                {
                    "name": "PlayerCamera X",
                    "type": "Value",
                    "id": "1d0abe3c-440a-48b2-a314-e12e03da6ada",
                    "expectedControlType": "Vector2",
                    "processors": "",
                    "interactions": "",
                    "initialStateCheck": true
                }
            ],
            "bindings": [
                {
                    "name": "",
                    "id": "4b9b2262-fbd2-4e7f-9799-af6684ab59a4",
                    "path": "<AndroidJoystick>/stick",
                    "interactions": "",
                    "processors": "InvertVector2(invertX=false,invertY=false)",
                    "groups": "",
                    "action": "PlayerCamera X",
                    "isComposite": false,
                    "isPartOfComposite": false
                }
            ]
        }
    ],
    "controlSchemes": []
}