Library/Bee/artifacts/mvdfrm/UnityEngine.UI.ref.dll_185BE6B90A175B42.mvfrm
Library/Bee/artifacts/mvdfrm/UnityEngine.AccessibilityModule.dll_650C81925F600380.mvfrm
Library/Bee/artifacts/mvdfrm/UnityEngine.AIModule.dll_4D03D028E0AD74FA.mvfrm
Library/Bee/artifacts/mvdfrm/UnityEngine.AndroidJNIModule.dll_EFA9EEC331DCB7B8.mvfrm
Library/Bee/artifacts/mvdfrm/UnityEngine.AnimationModule.dll_A85D710157580226.mvfrm
Library/Bee/artifacts/mvdfrm/UnityEngine.ARModule.dll_0676952C3DCAD3C3.mvfrm
Library/Bee/artifacts/mvdfrm/UnityEngine.AssetBundleModule.dll_BA15A71D97E27A14.mvfrm
Library/Bee/artifacts/mvdfrm/UnityEngine.AudioModule.dll_828FBEBDF6636998.mvfrm
Library/Bee/artifacts/mvdfrm/UnityEngine.ClothModule.dll_E9781BB8D080487C.mvfrm
Library/Bee/artifacts/mvdfrm/UnityEngine.CoreModule.dll_1BE20597F3B70291.mvfrm
Library/Bee/artifacts/mvdfrm/UnityEngine.CrashReportingModule.dll_0862BEB682825AC9.mvfrm
Library/Bee/artifacts/mvdfrm/UnityEngine.DirectorModule.dll_672D883008E2ECEE.mvfrm
Library/Bee/artifacts/mvdfrm/UnityEngine.dll_FABFDBAE1E36C234.mvfrm
Library/Bee/artifacts/mvdfrm/UnityEngine.DSPGraphModule.dll_6C7EE9997B43BE0F.mvfrm
Library/Bee/artifacts/mvdfrm/UnityEngine.GameCenterModule.dll_19F738DDF81DA8A9.mvfrm
Library/Bee/artifacts/mvdfrm/UnityEngine.GIModule.dll_E54019367C5C5D14.mvfrm
Library/Bee/artifacts/mvdfrm/UnityEngine.GridModule.dll_F95321860C0B9888.mvfrm
Library/Bee/artifacts/mvdfrm/UnityEngine.HotReloadModule.dll_29A62F07328B1DA8.mvfrm
Library/Bee/artifacts/mvdfrm/UnityEngine.ImageConversionModule.dll_8E04DCD4F57AA2B3.mvfrm
Library/Bee/artifacts/mvdfrm/UnityEngine.IMGUIModule.dll_BAEF5E24BC94FD79.mvfrm
Library/Bee/artifacts/mvdfrm/UnityEngine.InputLegacyModule.dll_4B5AC23C2FD43005.mvfrm
Library/Bee/artifacts/mvdfrm/UnityEngine.InputModule.dll_E905866E6C9B8E3C.mvfrm
Library/Bee/artifacts/mvdfrm/UnityEngine.JSONSerializeModule.dll_C5240ACE5E9B640A.mvfrm
Library/Bee/artifacts/mvdfrm/UnityEngine.LocalizationModule.dll_CBF46DEE2BCFBEDB.mvfrm
Library/Bee/artifacts/mvdfrm/UnityEngine.ParticleSystemModule.dll_5B750802F093E657.mvfrm
Library/Bee/artifacts/mvdfrm/UnityEngine.PerformanceReportingModule.dll_AB3FF83E95E36850.mvfrm
Library/Bee/artifacts/mvdfrm/UnityEngine.Physics2DModule.dll_F50360F1F854F9BB.mvfrm
Library/Bee/artifacts/mvdfrm/UnityEngine.PhysicsModule.dll_AF1B5EFAC182B769.mvfrm
Library/Bee/artifacts/mvdfrm/UnityEngine.ProfilerModule.dll_9973C166A23C73FB.mvfrm
Library/Bee/artifacts/mvdfrm/UnityEngine.RuntimeInitializeOnLoadManagerInitializerModule.dll_CA87A1E43AAA6084.mvfrm
Library/Bee/artifacts/mvdfrm/UnityEngine.ScreenCaptureModule.dll_DF0BB8537307906C.mvfrm
Library/Bee/artifacts/mvdfrm/UnityEngine.SharedInternalsModule.dll_12161BAA6CA89E03.mvfrm
Library/Bee/artifacts/mvdfrm/UnityEngine.SpriteMaskModule.dll_0323AB6E198D3E23.mvfrm
Library/Bee/artifacts/mvdfrm/UnityEngine.SpriteShapeModule.dll_D376D4784D84B21E.mvfrm
Library/Bee/artifacts/mvdfrm/UnityEngine.StreamingModule.dll_5CF25E51A6DFB964.mvfrm
Library/Bee/artifacts/mvdfrm/UnityEngine.SubstanceModule.dll_399D729AF232B772.mvfrm
Library/Bee/artifacts/mvdfrm/UnityEngine.SubsystemsModule.dll_6DD111CFE7D52636.mvfrm
Library/Bee/artifacts/mvdfrm/UnityEngine.TerrainModule.dll_C961DA6997410057.mvfrm
Library/Bee/artifacts/mvdfrm/UnityEngine.TerrainPhysicsModule.dll_5BEFB0D609D6E0E4.mvfrm
Library/Bee/artifacts/mvdfrm/UnityEngine.TextCoreFontEngineModule.dll_323EA27B2F8FDCEF.mvfrm
Library/Bee/artifacts/mvdfrm/UnityEngine.TextCoreTextEngineModule.dll_7A26D8ECBF13960D.mvfrm
Library/Bee/artifacts/mvdfrm/UnityEngine.TextRenderingModule.dll_084B2A5E2A3F1061.mvfrm
Library/Bee/artifacts/mvdfrm/UnityEngine.TilemapModule.dll_685E41EAAEFDE160.mvfrm
Library/Bee/artifacts/mvdfrm/UnityEngine.TLSModule.dll_C7A25802C20785FD.mvfrm
Library/Bee/artifacts/mvdfrm/UnityEngine.UIElementsModule.dll_720F7337EB01622D.mvfrm
Library/Bee/artifacts/mvdfrm/UnityEngine.UIElementsNativeModule.dll_41F16FFFF9B55164.mvfrm
Library/Bee/artifacts/mvdfrm/UnityEngine.UIModule.dll_48776E563CF47AA6.mvfrm
Library/Bee/artifacts/mvdfrm/UnityEngine.UmbraModule.dll_FD646AD6838A150B.mvfrm
Library/Bee/artifacts/mvdfrm/UnityEngine.UNETModule.dll_AE884D8140C5F80A.mvfrm
Library/Bee/artifacts/mvdfrm/UnityEngine.UnityAnalyticsModule.dll_7B1478CC9CBB3853.mvfrm
Library/Bee/artifacts/mvdfrm/UnityEngine.UnityConnectModule.dll_FB6AB294DD53F9C7.mvfrm
Library/Bee/artifacts/mvdfrm/UnityEngine.UnityCurlModule.dll_DB7A1232C76BF413.mvfrm
Library/Bee/artifacts/mvdfrm/UnityEngine.UnityTestProtocolModule.dll_316670F78AAF1201.mvfrm
Library/Bee/artifacts/mvdfrm/UnityEngine.UnityWebRequestAssetBundleModule.dll_325B6B84F788E164.mvfrm
Library/Bee/artifacts/mvdfrm/UnityEngine.UnityWebRequestAudioModule.dll_233C4C1D1C4E32E8.mvfrm
Library/Bee/artifacts/mvdfrm/UnityEngine.UnityWebRequestModule.dll_9FA3E47F006F3D32.mvfrm
Library/Bee/artifacts/mvdfrm/UnityEngine.UnityWebRequestTextureModule.dll_0E7DA24249A1B5BD.mvfrm
Library/Bee/artifacts/mvdfrm/UnityEngine.UnityWebRequestWWWModule.dll_44E91E48AED35279.mvfrm
Library/Bee/artifacts/mvdfrm/UnityEngine.VehiclesModule.dll_DEF081AF830CBC89.mvfrm
Library/Bee/artifacts/mvdfrm/UnityEngine.VFXModule.dll_4880F0719874EF6A.mvfrm
Library/Bee/artifacts/mvdfrm/UnityEngine.VideoModule.dll_A7994328B8F5853D.mvfrm
Library/Bee/artifacts/mvdfrm/UnityEngine.VRModule.dll_9B4994DBDEAF001E.mvfrm
Library/Bee/artifacts/mvdfrm/UnityEngine.WindModule.dll_9230E0C084ED80FA.mvfrm
Library/Bee/artifacts/mvdfrm/UnityEngine.XRModule.dll_CE0857E067E94D7C.mvfrm