Library/Bee/artifacts/mvdfrm/UnityEditor.UI.ref.dll_6A0DDEC5ED23C452.mvfrm
Library/Bee/artifacts/mvdfrm/UnityEngine.UI.ref.dll_2673B520F345ECBD.mvfrm
Library/Bee/artifacts/mvdfrm/Unity.Plastic.Antlr3.Runtime.dll_CAADC74FCE667F39.mvfrm
Library/Bee/artifacts/mvdfrm/Unity.Plastic.Newtonsoft.Json.dll_1451BF463C76F9EC.mvfrm
Library/Bee/artifacts/mvdfrm/Unity.Android.Gradle.dll_E3642B43EF28C884.mvfrm
Library/Bee/artifacts/mvdfrm/Unity.Android.Types.dll_8890269A445E09F8.mvfrm
Library/Bee/artifacts/mvdfrm/UnityEditor.Android.Extensions.dll_FEBC6B178D82EF44.mvfrm
Library/Bee/artifacts/mvdfrm/UnityEditor.iOS.Extensions.Common.dll_D20F64C31AA679A1.mvfrm
Library/Bee/artifacts/mvdfrm/UnityEditor.iOS.Extensions.dll_272FD7A6E2CB2AF4.mvfrm
Library/Bee/artifacts/mvdfrm/UnityEditor.iOS.Extensions.Xcode.dll_AF5A17C494635F3B.mvfrm
Library/Bee/artifacts/mvdfrm/UnityEditor.Graphs.dll_912E306A3C578E2E.mvfrm
Library/Bee/artifacts/mvdfrm/UnityEditor.CoreModule.dll_DBC099ABFBE7FFFC.mvfrm
Library/Bee/artifacts/mvdfrm/UnityEditor.DeviceSimulatorModule.dll_4997614437B6B285.mvfrm
Library/Bee/artifacts/mvdfrm/UnityEditor.DiagnosticsModule.dll_0C02E9B4E8033B93.mvfrm
Library/Bee/artifacts/mvdfrm/UnityEditor.dll_526018CFB79228D9.mvfrm
Library/Bee/artifacts/mvdfrm/UnityEditor.GraphViewModule.dll_E958BEB599AC2B0A.mvfrm
Library/Bee/artifacts/mvdfrm/UnityEditor.PackageManagerUIModule.dll_4AEB51717EEACA58.mvfrm
Library/Bee/artifacts/mvdfrm/UnityEditor.QuickSearchModule.dll_97126AC240DA37EC.mvfrm
Library/Bee/artifacts/mvdfrm/UnityEditor.SceneTemplateModule.dll_B12E458F73C4EBED.mvfrm
Library/Bee/artifacts/mvdfrm/UnityEditor.TextCoreFontEngineModule.dll_630CB221E3F7A5FA.mvfrm
Library/Bee/artifacts/mvdfrm/UnityEditor.TextCoreTextEngineModule.dll_AAF4E893737B5F18.mvfrm
Library/Bee/artifacts/mvdfrm/UnityEditor.UIBuilderModule.dll_3DE16BD20C64A43E.mvfrm
Library/Bee/artifacts/mvdfrm/UnityEditor.UIElementsModule.dll_AA7BD683947A65B8.mvfrm
Library/Bee/artifacts/mvdfrm/UnityEditor.UIElementsSamplesModule.dll_CB491FB1B5697F35.mvfrm
Library/Bee/artifacts/mvdfrm/UnityEditor.UIServiceModule.dll_76D37D34F59BF458.mvfrm
Library/Bee/artifacts/mvdfrm/UnityEditor.UnityConnectModule.dll_F3BDF6434590ACB2.mvfrm
Library/Bee/artifacts/mvdfrm/UnityEngine.AccessibilityModule.dll_E3D3B126743B138A.mvfrm
Library/Bee/artifacts/mvdfrm/UnityEngine.AIModule.dll_55BE659F1737A6D0.mvfrm
Library/Bee/artifacts/mvdfrm/UnityEngine.AndroidJNIModule.dll_28C4BF56DD99D48E.mvfrm
Library/Bee/artifacts/mvdfrm/UnityEngine.AnimationModule.dll_B7DE3ADE7408FFB0.mvfrm
Library/Bee/artifacts/mvdfrm/UnityEngine.ARModule.dll_0F312AA274550599.mvfrm
Library/Bee/artifacts/mvdfrm/UnityEngine.AssetBundleModule.dll_DAFB9DB3A340ECDE.mvfrm
Library/Bee/artifacts/mvdfrm/UnityEngine.AudioModule.dll_99C56129C572F4A2.mvfrm
Library/Bee/artifacts/mvdfrm/UnityEngine.ClothModule.dll_00ADBE249F8FD386.mvfrm
Library/Bee/artifacts/mvdfrm/UnityEngine.CoreModule.dll_FEE16CFEA3ED6B27.mvfrm
Library/Bee/artifacts/mvdfrm/UnityEngine.CrashReportingModule.dll_987AE69D2BD8FD1F.mvfrm
Library/Bee/artifacts/mvdfrm/UnityEngine.DirectorModule.dll_CF2273EB2F47CB04.mvfrm
Library/Bee/artifacts/mvdfrm/UnityEngine.dll_85045FA81605B5BE.mvfrm
Library/Bee/artifacts/mvdfrm/UnityEngine.DSPGraphModule.dll_D473D554A1A89C25.mvfrm
Library/Bee/artifacts/mvdfrm/UnityEngine.GameCenterModule.dll_53120971A3DAC57F.mvfrm
Library/Bee/artifacts/mvdfrm/UnityEngine.GIModule.dll_EDFAAEACB2E68EEA.mvfrm
Library/Bee/artifacts/mvdfrm/UnityEngine.GridModule.dll_DC5288ECBC42011E.mvfrm
Library/Bee/artifacts/mvdfrm/UnityEngine.HotReloadModule.dll_3926F8E44F3C1B32.mvfrm
Library/Bee/artifacts/mvdfrm/UnityEngine.ImageConversionModule.dll_BB362166299677FD.mvfrm
Library/Bee/artifacts/mvdfrm/UnityEngine.IMGUIModule.dll_D22500908BA48883.mvfrm
Library/Bee/artifacts/mvdfrm/UnityEngine.InputLegacyModule.dll_6C40B8D23B32A2CF.mvfrm
Library/Bee/artifacts/mvdfrm/UnityEngine.InputModule.dll_003B28DA3BAB1946.mvfrm
Library/Bee/artifacts/mvdfrm/UnityEngine.JSONSerializeModule.dll_43EB3A6273767414.mvfrm
Library/Bee/artifacts/mvdfrm/UnityEngine.LocalizationModule.dll_B1A735AB8E947271.mvfrm
Library/Bee/artifacts/mvdfrm/UnityEngine.ParticleSystemModule.dll_EB8D2FE999EA88AD.mvfrm
Library/Bee/artifacts/mvdfrm/UnityEngine.PerformanceReportingModule.dll_9203E52D9F5BE6E6.mvfrm
Library/Bee/artifacts/mvdfrm/UnityEngine.Physics2DModule.dll_04842ACF1505F745.mvfrm
Library/Bee/artifacts/mvdfrm/UnityEngine.PhysicsModule.dll_3206E3015C0067B3.mvfrm
Library/Bee/artifacts/mvdfrm/UnityEngine.ProfilerModule.dll_0168AD21C8A15211.mvfrm
Library/Bee/artifacts/mvdfrm/UnityEngine.RuntimeInitializeOnLoadManagerInitializerModule.dll_21E2B9CAFCBD720E.mvfrm
Library/Bee/artifacts/mvdfrm/UnityEngine.ScreenCaptureModule.dll_5DD2E7E787E2A076.mvfrm
Library/Bee/artifacts/mvdfrm/UnityEngine.SharedInternalsModule.dll_3F47603BA0C4734D.mvfrm
Library/Bee/artifacts/mvdfrm/UnityEngine.SpriteMaskModule.dll_3C3E7C01C54A5AF9.mvfrm
Library/Bee/artifacts/mvdfrm/UnityEngine.SpriteShapeModule.dll_F45CCB0E58E324E8.mvfrm
Library/Bee/artifacts/mvdfrm/UnityEngine.StreamingModule.dll_6C73282EC390B6EE.mvfrm
Library/Bee/artifacts/mvdfrm/UnityEngine.SubstanceModule.dll_491E3C780EE3B4FC.mvfrm
Library/Bee/artifacts/mvdfrm/UnityEngine.SubsystemsModule.dll_A6EBE2639392430C.mvfrm
Library/Bee/artifacts/mvdfrm/UnityEngine.TerrainModule.dll_4C4D5E7031BEB0A1.mvfrm
Library/Bee/artifacts/mvdfrm/UnityEngine.TerrainPhysicsModule.dll_EC07D8BCB32D833A.mvfrm
Library/Bee/artifacts/mvdfrm/UnityEngine.TextCoreFontEngineModule.dll_E16C2D74F6F564C5.mvfrm
Library/Bee/artifacts/mvdfrm/UnityEngine.TextCoreTextEngineModule.dll_295463E686791DE3.mvfrm
Library/Bee/artifacts/mvdfrm/UnityEngine.TextRenderingModule.dll_871259F23F1A206B.mvfrm
Library/Bee/artifacts/mvdfrm/UnityEngine.TilemapModule.dll_EB49C5F1497B91AA.mvfrm
Library/Bee/artifacts/mvdfrm/UnityEngine.TLSModule.dll_24104DABEB5913C7.mvfrm
Library/Bee/artifacts/mvdfrm/UnityEngine.UIElementsModule.dll_AB2A43CB96BE7F03.mvfrm
Library/Bee/artifacts/mvdfrm/UnityEngine.UIElementsNativeModule.dll_95650606F0633A7A.mvfrm
Library/Bee/artifacts/mvdfrm/UnityEngine.UIModule.dll_513203CC737EAC7C.mvfrm
Library/Bee/artifacts/mvdfrm/UnityEngine.UmbraModule.dll_149A0D425299A015.mvfrm
Library/Bee/artifacts/mvdfrm/UnityEngine.UNETModule.dll_9187B4E7F0FC60A0.mvfrm
Library/Bee/artifacts/mvdfrm/UnityEngine.UnityAnalyticsModule.dll_0B2CA0B34611DAA9.mvfrm
Library/Bee/artifacts/mvdfrm/UnityEngine.UnityConnectModule.dll_E11D7A524018AD5D.mvfrm
Library/Bee/artifacts/mvdfrm/UnityEngine.UnityCurlModule.dll_EAFADC0FE41CF19D.mvfrm
Library/Bee/artifacts/mvdfrm/UnityEngine.UnityTestProtocolModule.dll_870BD5A40F64D48B.mvfrm
Library/Bee/artifacts/mvdfrm/UnityEngine.UnityWebRequestAssetBundleModule.dll_76F7D6873BCC543A.mvfrm
Library/Bee/artifacts/mvdfrm/UnityEngine.UnityWebRequestAudioModule.dll_0A00390C25C6B17E.mvfrm
Library/Bee/artifacts/mvdfrm/UnityEngine.UnityWebRequestModule.dll_CCD52910348B127C.mvfrm
Library/Bee/artifacts/mvdfrm/UnityEngine.UnityWebRequestTextureModule.dll_7FE018A351E38313.mvfrm
Library/Bee/artifacts/mvdfrm/UnityEngine.UnityWebRequestWWWModule.dll_F416A9427638DA4F.mvfrm
Library/Bee/artifacts/mvdfrm/UnityEngine.VehiclesModule.dll_46E56D6AA9719A9F.mvfrm
Library/Bee/artifacts/mvdfrm/UnityEngine.VFXModule.dll_A4EEE61AC1C67D34.mvfrm
Library/Bee/artifacts/mvdfrm/UnityEngine.VideoModule.dll_BECEE59488051047.mvfrm
Library/Bee/artifacts/mvdfrm/UnityEngine.VRModule.dll_A4042A52153931F4.mvfrm
Library/Bee/artifacts/mvdfrm/UnityEngine.WindModule.dll_753048273523E990.mvfrm
Library/Bee/artifacts/mvdfrm/UnityEngine.XRModule.dll_D6C2ED569E737F52.mvfrm
Library/Bee/artifacts/mvdfrm/UnityEditor.OSXStandalone.Extensions.dll_36C301032DDCB10F.mvfrm