%YAML 1.1
%TAG !u! tag:unity3d.com,2011:
--- !u!78 &1
TagManager:
  serializedVersion: 2
  tags:
  - Shootable
  - Goal
  - Ground
  - ItemPosition
  - Item
  - PlayerAttackPoint
  - PlayerDamage
  - Enemy
  - EnemyTarget
  - EnemyDamage
  - MoveWall
  - PlayerChargeDamage
  - ChargeAttack1
  - ChargeAttack2
  - ChargeAttack3
  - PlayerChageAttackShell
  - Boss
  - MainSound
  - BossGuard
  - BossAttackShell
  - BossAttackLineShell
  - ShellPool
  - DamageEffectPool
  - GameManager
  - FieldOutErea
  - CustomManager
  layers:
  - Default
  - TransparentFX
  - Ignore Raycast
  - 
  - Water
  - UI
  - 
  - 
  - Lighting
  - Ground
  - Postprocessing
  - 
  - 
  - 
  - 
  - 
  - 
  - 
  - 
  - 
  - 
  - 
  - 
  - 
  - 
  - 
  - 
  - 
  - 
  - 
  - 
  - 
  m_SortingLayers:
  - name: Fire
    uniqueID: 3804908061
    locked: 0
  - name: Default
    uniqueID: 0
    locked: 0
