{"msg":"init","dagFile":"artifacts/tundra.dag","targets":[]}
{"msg":"enqueueNode","enqueuedNodeAnnotation":"all_tundra_nodes","enqueuedNodeIndex":0}
{"msg":"enqueueNode","enqueuedNodeAnnotation":"Il2Cpp /Users/yuta-kashiwagi/Desktop/TechStadium/ts_un_stu_202202/90_FinalProject/10_UnityProject/BugBuster/Library/Il2cppBuildCache/iOS/il2cppOutput/Data/Metadata/global-metadata.dat","enqueuedNodeIndex":1,"enqueueingNodeAnnotation":"all_tundra_nodes","enqueueingNodeIndex":0}
{"msg":"enqueueNode","enqueuedNodeAnnotation":"Copy Additional C++ File /Users/yuta-kashiwagi/Desktop/TechStadium/ts_un_stu_202202/90_FinalProject/10_UnityProject/BugBuster/Library/Il2cppBuildCache/iOS/il2cppOutput/UnityClassRegistration.cpp","enqueuedNodeIndex":2,"enqueueingNodeAnnotation":"all_tundra_nodes","enqueueingNodeIndex":0}
{"msg":"enqueueNode","enqueuedNodeAnnotation":"Copy Additional C++ File /Users/yuta-kashiwagi/Desktop/TechStadium/ts_un_stu_202202/90_FinalProject/10_UnityProject/BugBuster/Library/Il2cppBuildCache/iOS/il2cppOutput/UnityICallRegistration.cpp","enqueuedNodeIndex":3,"enqueueingNodeAnnotation":"all_tundra_nodes","enqueueingNodeIndex":0}
{"msg":"inputSignatureChanged","annotation":"Il2Cpp /Users/yuta-kashiwagi/Desktop/TechStadium/ts_un_stu_202202/90_FinalProject/10_UnityProject/BugBuster/Library/Il2cppBuildCache/iOS/il2cppOutput/Data/Metadata/global-metadata.dat","index":1,"changes":[{"key":"InputFileDigest","path":"/Users/yuta-kashiwagi/Desktop/TechStadium/ts_un_stu_202202/90_FinalProject/10_UnityProject/BugBuster/Temp/StagingArea/Data/Managed/Assembly-CSharp.dll","dependency":"explicit"}]}
{"msg":"noderesult","annotation":"Il2Cpp /Users/yuta-kashiwagi/Desktop/TechStadium/ts_un_stu_202202/90_FinalProject/10_UnityProject/BugBuster/Library/Il2cppBuildCache/iOS/il2cppOutput/Data/Metadata/global-metadata.dat","index":1,"exitcode":0}
{"msg":"nodeOutputsMissing","annotation":"Copy Additional C++ File /Users/yuta-kashiwagi/Desktop/TechStadium/ts_un_stu_202202/90_FinalProject/10_UnityProject/BugBuster/Library/Il2cppBuildCache/iOS/il2cppOutput/UnityClassRegistration.cpp","index":2,"files":["/Users/yuta-kashiwagi/Desktop/TechStadium/ts_un_stu_202202/90_FinalProject/10_UnityProject/BugBuster/Library/Il2cppBuildCache/iOS/il2cppOutput/UnityClassRegistration.cpp"],"directories":[]}
{"msg":"nodeOutputsMissing","annotation":"Copy Additional C++ File /Users/yuta-kashiwagi/Desktop/TechStadium/ts_un_stu_202202/90_FinalProject/10_UnityProject/BugBuster/Library/Il2cppBuildCache/iOS/il2cppOutput/UnityICallRegistration.cpp","index":3,"files":["/Users/yuta-kashiwagi/Desktop/TechStadium/ts_un_stu_202202/90_FinalProject/10_UnityProject/BugBuster/Library/Il2cppBuildCache/iOS/il2cppOutput/UnityICallRegistration.cpp"],"directories":[]}
{"msg":"noderesult","annotation":"Copy Additional C++ File /Users/yuta-kashiwagi/Desktop/TechStadium/ts_un_stu_202202/90_FinalProject/10_UnityProject/BugBuster/Library/Il2cppBuildCache/iOS/il2cppOutput/UnityClassRegistration.cpp","index":2,"exitcode":0}
{"msg":"noderesult","annotation":"Copy Additional C++ File /Users/yuta-kashiwagi/Desktop/TechStadium/ts_un_stu_202202/90_FinalProject/10_UnityProject/BugBuster/Library/Il2cppBuildCache/iOS/il2cppOutput/UnityICallRegistration.cpp","index":3,"exitcode":0}
